{
    "nom": "yoDawg",

    "fps":      30,
    "t_fin":    4.0,

    "largeur": 600,
    "hauteur": 600,

    "avconv": "avconv -r %1 -i %2 -b:v 1000k %3",

    "scene": [
        {
            "type": "figure",
            "figure": ["carre", 64, 64],
            "transforms": [
                ["rotate", 0, 90]
            ]
        },

        {
            "type": "gen",
            "nombre": 3,
            "transforms": [
                ["rotate", 0, 120, -90],
                [
                    "translate",
                    180, 0, 0,
                    0, 0, 0
                ]
            ],
            "contenu": [
                {
                    "type": "figure",
                    "figure": ["carre", 32, 32],
                    "transforms": []
                },
                {
                    "type": "gen",
                    "nombre": 3,
                    "transforms": [
                        ["rotate", 0, 120, 180],
                        [
                            "translate",
                            80, 0, 0,
                            0, 0, 0
                        ]
                    ],
                    "contenu": [
                        {
                            "type": "figure",
                            "figure": ["carre", 12, 12],
                            "transforms": []
                        },
                        {
                            "type": "gen",
                            "nombre": 7,
                            "transforms": [
                                ["rotate", 0, 51, 120],
                                [
                                    "translate",
                                    30, 0, 0,
                                    0, 0, 0
                                ]
                            ],
                            "contenu": {
                                "type": "figure",
                                "figure": ["carre", 8, 8],
                                "transforms": []
                            }
                        }
                    ]
                },
                {
                    "type": "gen",
                    "nombre": 3,
                    "transforms": [
                        ["rotate", 60, 120, 180],
                        [
                            "translate",
                            80, 0, 0,
                            0, 0, 0
                        ]
                    ],
                    "contenu": [
                        {
                            "type": "figure",
                            "figure": ["carre", 12, 12],
                            "transforms": []
                        },
                        {
                            "type": "gen",
                            "nombre": 7,
                            "transforms": [
                                ["rotate", 0, 51, -120],
                                [
                                    "translate",
                                    30, 0, 0,
                                    0, 0, 0
                                ]
                            ],
                            "contenu": {
                                "type": "figure",
                                "figure": ["carre", 8, 8],
                                "transforms": []
                            }
                        }
                    ]
                }
            ]
        }
    ]
}