{
    "nom": "yoDawg2",

    "fps":      30,
    "t_fin":    8.0,

    "largeur": 960,
    "hauteur": 540,

    "avconv": "avconv -r %1 -i %2 -b:v 1000k %3",

    "scene": [
        {
            "type": "figure",
            "figure": ["carre", 960, 540],
            "couleur": [0.67, 0.1, 0.1],
            "transforms": []
        },

        {
            "type": "gen",
            "nombre": 4,
            "transforms": [
                ["scaleU", 0.2, 0, 0.4],
                ["rotate", 0, 0, 45],
                [
                    "translate",
                    0, 0, 0,
                    -233, 155, 0
                ]
            ],
            "contenu": {
                "type": "figure",
                "figure": ["carre", 465, 77],
                "couleur": "#C000A8",
                "transforms": []
            }
        },

        {
            "type": "gen",
            "nombre": 4,
            "transforms": [
                ["scaleU", 2, 0, -0.4],
                [
                    "translate",
                    -233, 155, 0,
                    0, 0, 0
                ]
            ],
            "contenu": {
                "type": "figure",
                "figure": ["carre", 40, 465],
                "couleur": [1, 1, 1],
                "transforms": []
            }
        },

        {
            "type": "gen",
            "nombre": 3,
            "transforms": [
                ["rotate", 0, 120, -90],
                [
                    "translate",
                    170, 0, 0,
                    0, 0, 0
                ]
            ],
            "contenu": {
                "type": "figure",
                "figure": ["cercle", 300, 300],
                "couleur": [0, 0, 0],
                "transforms": []
            }
        },

        {
            "type": "figure",
            "figure": ["cercle", 32, 32],
            "couleur": [0, 1, 1],
            "transforms": [
                ["rotate", 0, 90]
            ]
        },

        {
            "type": "gen",
            "nombre": 3,
            "transforms": [
                ["rotate", 0, 120, -90],
                [
                    "translate",
                    170, 0, 0,
                    0, 0, 0
                ]
            ],
            "contenu": [
                {
                    "type": "figure",
                    "figure": ["cercle", 32, 32],
                    "couleur": [0, 1, 1],
                    "transforms": []
                },
                {
                    "type": "gen",
                    "nombre": 3,
                    "transforms": [
                        ["rotate", 0, 120, 180],
                        [
                            "translate",
                            80, 0, 0,
                            0, 0, 0
                        ]
                    ],
                    "contenu": [
                        {
                            "type": "figure",
                            "figure": ["carre", 12, 12],
                            "couleur": [1, 1, 1],
                            "transforms": []
                        },
                        {
                            "type": "gen",
                            "nombre": 7,
                            "transforms": [
                                ["rotate", 0, 51, 120],
                                [
                                    "translate",
                                    40, 0, 0,
                                    0, 0, 0
                                ]
                            ],
                            "contenu": {
                                "type": "figure",
                                "figure": ["carre", 8, 8],
                                "couleur": [0, 1, 1],
                                "transforms": []
                            }
                        }
                    ]
                },
                {
                    "type": "gen",
                    "nombre": 3,
                    "transforms": [
                        ["rotate", 60, 120, 180],
                        [
                            "translate",
                            80, 0, 0,
                            0, 0, 0
                        ]
                    ],
                    "contenu": [
                        {
                            "type": "figure",
                            "figure": ["cercle", 22, 22],
                            "couleur": [0.67, 0.1, 0.1],
                            "transforms": []
                        },
                        {
                            "type": "gen",
                            "nombre": 7,
                            "transforms": [
                                ["rotate", 25, 51, -120],
                                [
                                    "translate",
                                    40, 0, 0,
                                    0, 0, 0
                                ]
                            ],
                            "contenu": {
                                "type": "figure",
                                "figure": ["carre", 8, 8],
                                "couleur": [0, 1, 1],
                                "transforms": []
                            }
                        }
                    ]
                }
            ]
        }
    ]
}